{
  "name": "rxtoolbox",
  "url" : "https://gitlab.com/zagortenej-haxe/rxtoolbox.git",
  "license": "MIT",
  "tags": ["json","log","arguments","cli"],
  "description": "A bag of misc tools.",
  "version": "1.0.0",
  "classPath": "src/",
  "releasenote": "Initial release.",
  "contributors": ["zagortenej"],
  "dependencies": {},
  "main": "RxTools"
}
